﻿33
А
0001000
0010100
0010100
0111110
0100010
1000001
1000001

Б
1111111
1000000
1000000
1111111
1000001
1000001
1111111

В
1111111
1000001
1000001
1111110
1000001
1000001
1111111

Г
1111111
1000000
1000000
1000000
1000000
1000000
1000000

Д
0111110
0100010
0100010
0100010
0111110
1000001
1000001

Е
1111111
1000000
1000000
1111111
1000000
1000000
1111111

Ё
0100010
0000000
1111111
1000000
1111111
1000000
1111111

Ж
1001001
0101010
0011100
0001000
0011100
0101010
1001001

З
1111111
0000001
0000001
1111110
0000001
0000001
1111111

И
1000001
1000011
1000101
1001001
1010001
1100001
1000001

Й
1011101
1000011
1000101
1001001
1010001
1100001
1000001

К
1000001
1000110
1011000
1100000
1011000
1000110
1000001

Л
0001000
0010100
0100010
0100010
1000001
1000001
1000001

М
1000001
1100011
1010101
1001001
1000001
1000001
1000001

Н
1000001
1000001
1000001
1111111
1000001
1000001
1000001

О
0001000
0010100
0100010
1100011
0100010
0010100
0001000

П
1111111
1000001
1000001
1000001
1000001
1000001
1000001

Р
1111111
1000001
1000001
1111111
1000000
1000000
1000000

С
1111111
1000000
1000000
1000000
1000000
1000000
1111111

Т
1111111
0001000
0001000
0001000
0001000
0001000
0001000

У
1000001
0100010
0010100
0001000
0010000
0100000
1000000

Ф
1111111
1001001
1001001
1111111
0001000
0001000
0001000

Х
1000001
0100010
0010100
0001000
0010100
0100010
1000001

Ц
1000010
1000010
1000010
1000010
1000010
1111111
0000001

Ч
1000001
1000001
1000001
1111111
0000001
0000001
0000001

Ш
1001001
1001001
1001001
1001001
1001001
1001001
1111111

Щ
1001001
1001001
1001001
1001001
1001001
1111111
0000001

Ъ
1100000
0100000
0100000
0111111
0100001
0100001
0111111

Ы
1000001
1000001
1000001
1111001
1001001
1001001
1111001

Ь
1000000
1000000
1000000
1111111
1000001
1000001
1111111

Э
0011110
0100001
1000001
0001110
1000001
0100001
0011110

Ю
1011111
1010001
1010001
1110001
1010001
1010001
1011111

Я
1111111
1000001
1000001
1111111
0000111
0011001
1100001

9
0 5
1 0
2 4
3 0
3 6
4 3
4 4
6 2
6 4